{
  “Chennai”: {
    “lng”: 80.259590,
    ”lat”: 13.086413
  },
  “Bangalore”: -{
    “lng”: 77.594441,
    ”lat”: 12.958154
  },
  “Hassan”: {
    “lng”: 76.051528,
    ”lat”: 13.049749
  },
  “Hubli”: {
    “lng”: 75.139992,
    ”lat”: 15.362499
  },
  “Goa”: {
    “lng”: 73.844542,
    ”lat”: 15.469387
  },
  “Hyderabad”: {
    “lng”: 78.494218,
    ”lat”: 17.375842
  },
  “Surat”: {
    “lng”: 72.835147,
    ”lat”: 21.176333
  },
  “Rajasthan”: {
    “lng”: 73.705078,
    ”lat”: 26.675033
  },
  “Pakistan”: {
    “lng”: 68.759503,
    ”lat”: 29.925125
  },
  “Iran”: {
    “lng”: 54.169659,
    ”lat”: 31.960261
  },
  “Iraq”: {
    “lng”: 42.897687,
    ”lat”: 32.979811
  },
  “Greeze”: {
    “lng”: 22.470793,
    ”lat”: 39.157372
  },
  “Austria”: {
    “lng”: 14.430793,
    ”lat”: 47.419308
  },
  “Germany”: {
    “lng”: 8.893683,
    ”lat”: 51.033234
  },
  “Britain”: {
    “lng”: -2.568502,
    ”lat”: 53.061107
  },
  “Ireland”: {
    “lng”: -8.413229,
    ”lat”: 53.140262
  },
  “Ocean”: {
    “lng”: -34.297018,
    ”lat”: 54.310194
  },
  “Canada”: {
    “lng”: -64.355612,
    ”lat”: 54.104582
  },
  “Alaska”: {
    “lng”: -157.349992,
    ”lat”: 64.166578
  },
  “Brazil”: {
    “lng”: -56.129969,
    ”lat”: -14.279344
  },
  “Zambia”: {
    “lng”: 26.580829,
    ”lat”: -14.376021
  },
  “Australia”: {
    “lng”: 134.978797,
    ”lat”: -25.651943
  },
  “Japan”: {
    “lng”: 139.191932,
    ”lat”: 36.094756
  },
  “China”: {
    “lng”: 105.441932,
    ”lat”: 34.226714
  },
  “Thailand”: {
    “lng”: 100.707409,
    ”lat”: 16.205618
  },
  “Andaman”: {
    “lng”: 92.775280,
    ”lat”: 12.051585
  }
}